{
  "title": "Sjekklister API",
  "description": "This is a sample server for a pet store.",
  "termsOfService": "http://example.com/terms/",
  "contact": {
    "name": "API Support",
    "url": "http://www.example.com/support",
    "email": "support@example.com"
  },
  "license": {
    "name": "Apache 2.0",
    "url": "https://www.apache.org/licenses/LICENSE-2.0.html"
  },
  "version": "1.0.1"
}